#Measurement file	
#project	CMS tracker
#Sensor Type	PSS
#ID	34342_047_PSS_MAINL
#Scratch PAD	|0000|0000|0000|0000|0100|0111|
#Operator	HPK
#Date	28-Sep-20
#Ingot No.	2984038-504
#Bad strips	0
#AC NG	none
#AC open	none
#AC short	none
#DC high	none
#DC low	none
#DC leaky	none
#Polysilicon Bias Resistance Upper [Mohm]	1.81 
#Polysilicon Bias Resistance Lower [Mohm]	1.60 
#Polysilicon Bias Resistance Average [Mohm]	1.70 
#Depletion voltage [V]	290
#temperature [deg]	25
#humidity [%]	50
	
voltage [V]	current [A]
0	3.945E-09
20	6.674E-08
40	7.095E-08
60	7.273E-08
80	7.393E-08
100	7.48E-08
120	7.601E-08
140	7.664E-08
160	7.741E-08
180	7.778E-08
200	7.829E-08
220	7.505E-08
240	7.63E-08
260	7.875E-08
280	8.088E-08
300	8.213E-08
320	0.000000083
340	8.37E-08
360	8.433E-08
380	8.49E-08
400	8.544E-08
420	8.595E-08
440	8.643E-08
460	8.69E-08
480	8.735E-08
500	8.781E-08
520	8.825E-08
540	8.868E-08
560	8.911E-08
580	8.953E-08
600	8.995E-08
620	9.037E-08
640	9.079E-08
660	9.121E-08
680	9.164E-08
700	9.207E-08
720	9.249E-08
740	9.293E-08
760	9.337E-08
780	9.382E-08
800	9.428E-08
820	9.475E-08
840	9.523E-08
860	9.573E-08
880	9.625E-08
900	9.678E-08
920	9.733E-08
940	9.792E-08
960	9.852E-08
980	9.915E-08
1000	9.982E-08
	
voltage [V]	capacitance [F]
0	5.55493E-08
10	8.10261E-09
20	5.87423E-09
30	4.83383E-09
40	4.18614E-09
50	3.74993E-09
60	3.4295E-09
70	3.16807E-09
80	2.95125E-09
90	2.78396E-09
100	2.64218E-09
110	2.5198E-09
120	2.41313E-09
130	2.31892E-09
140	2.23455E-09
150	2.15889E-09
160	2.09106E-09
170	2.03137E-09
180	1.97208E-09
190	1.91523E-09
200	1.86417E-09
210	1.81671E-09
220	1.77276E-09
230	1.7303E-09
240	1.68945E-09
250	1.65105E-09
260	1.61648E-09
270	1.58855E-09
280	1.57231E-09
290	1.56586E-09
300	1.56299E-09
310	1.56131E-09
320	1.56012E-09
330	1.55922E-09
340	1.55852E-09
350	1.55795E-09
360	1.55735E-09
370	1.55692E-09
380	1.55648E-09
390	1.55614E-09
400	1.55578E-09
	
#End of manufacturer data file		
