#Measurement file	
#project	CMS tracker
#Sensor Type	PSS
#ID	34342_034_PSS_MAINL
#Scratch PAD	|0000|0000|0000|0000|0011|0100|
#Operator	HPK
#Date	28-Sep-20
#Ingot No.	2984038-504
#Bad strips	0
#AC NG	none
#AC open	none
#AC short	none
#DC high	none
#DC low	none
#DC leaky	none
#Polysilicon Bias Resistance Upper [Mohm]	1.81 
#Polysilicon Bias Resistance Lower [Mohm]	1.60 
#Polysilicon Bias Resistance Average [Mohm]	1.70 
#Depletion voltage [V]	280
#temperature [deg]	25
#humidity [%]	50
	
voltage [V]	current [A]
0	4.076E-09
20	6.387E-08
40	6.693E-08
60	7.03E-08
80	7.146E-08
100	7.241E-08
120	7.355E-08
140	7.429E-08
160	7.487E-08
180	7.527E-08
200	7.583E-08
220	7.68E-08
240	7.327E-08
260	7.533E-08
280	7.722E-08
300	7.834E-08
320	7.913E-08
340	7.977E-08
360	8.034E-08
380	8.087E-08
400	8.136E-08
420	8.182E-08
440	8.227E-08
460	8.271E-08
480	8.313E-08
500	8.354E-08
520	8.395E-08
540	8.435E-08
560	8.474E-08
580	8.514E-08
600	8.553E-08
620	8.592E-08
640	8.631E-08
660	8.671E-08
680	8.71E-08
700	8.751E-08
720	8.791E-08
740	8.832E-08
760	8.874E-08
780	8.917E-08
800	8.961E-08
820	0.0003538
840	9.111E-08
860	9.158E-08
880	9.208E-08
900	9.259E-08
920	9.311E-08
940	9.367E-08
960	9.425E-08
980	9.485E-08
1000	9.549E-08
	
voltage [V]	capacitance [F]
0	5.39062E-08
10	8.10266E-09
20	5.87585E-09
30	4.8349E-09
40	4.18806E-09
50	3.75594E-09
60	3.43516E-09
70	3.15882E-09
80	2.9567E-09
90	2.78919E-09
100	2.64717E-09
110	2.52463E-09
120	2.41777E-09
130	2.32338E-09
140	2.23892E-09
150	2.16328E-09
160	2.09518E-09
170	2.03287E-09
180	1.97712E-09
190	1.92109E-09
200	1.86886E-09
210	1.82019E-09
220	1.77559E-09
230	1.73284E-09
240	1.69161E-09
250	1.65239E-09
260	1.61767E-09
270	1.59056E-09
280	1.57561E-09
290	1.56972E-09
300	1.56697E-09
310	1.56532E-09
320	1.56417E-09
330	1.56326E-09
340	1.56253E-09
350	1.56196E-09
360	1.56146E-09
370	1.56099E-09
380	1.56053E-09
390	1.5602E-09
400	1.55987E-09
	
#End of manufacturer data file		
