#Measurement file	
#project	CMS tracker
#Sensor Type	PSS
#ID	34342_008_PSS_MAINL
#Scratch PAD	|0000|0000|0000|0000|0000|1000|
#Operator	HPK
#Date	28-Sep-20
#Ingot No.	2984038-504
#Bad strips	0
#AC NG	none
#AC open	none
#AC short	none
#DC high	none
#DC low	none
#DC leaky	none
#Polysilicon Bias Resistance Upper [Mohm]	1.81 
#Polysilicon Bias Resistance Lower [Mohm]	1.60 
#Polysilicon Bias Resistance Average [Mohm]	1.70 
#Depletion voltage [V]	280
#temperature [deg]	25
#humidity [%]	50
	
voltage [V]	current [A]
0	4.423E-09
20	6.699E-08
40	7.005E-08
60	7.363E-08
80	7.488E-08
100	7.592E-08
120	7.707E-08
140	7.779E-08
160	7.858E-08
180	7.916E-08
200	7.972E-08
220	7.606E-08
240	0.000000077
260	7.889E-08
280	8.048E-08
300	8.147E-08
320	8.221E-08
340	8.284E-08
360	8.342E-08
380	8.395E-08
400	8.447E-08
420	8.495E-08
440	8.542E-08
460	8.588E-08
480	8.632E-08
500	8.675E-08
520	8.717E-08
540	8.759E-08
560	8.801E-08
580	8.842E-08
600	8.884E-08
620	8.924E-08
640	8.965E-08
660	9.007E-08
680	9.048E-08
700	9.089E-08
720	9.132E-08
740	9.174E-08
760	9.218E-08
780	9.262E-08
800	9.307E-08
820	9.353E-08
840	9.401E-08
860	9.449E-08
880	0.000000095
900	9.551E-08
920	9.604E-08
940	9.662E-08
960	9.72E-08
980	9.782E-08
1000	9.847E-08
	
voltage [V]	capacitance [F]
0	5.14525E-08
10	8.84727E-09
20	5.97653E-09
30	4.88167E-09
40	4.21367E-09
50	3.76716E-09
60	3.4408E-09
70	3.1652E-09
80	2.95783E-09
90	2.78962E-09
100	2.64699E-09
110	2.52409E-09
120	2.41692E-09
130	2.32236E-09
140	2.23768E-09
150	2.16185E-09
160	2.09316E-09
170	2.03178E-09
180	1.97505E-09
190	1.92E-09
200	1.86747E-09
210	1.82056E-09
220	1.77642E-09
230	1.73409E-09
240	1.69311E-09
250	1.6543E-09
260	1.61954E-09
270	1.59167E-09
280	1.57544E-09
290	1.56883E-09
300	1.56591E-09
310	1.56417E-09
320	1.563E-09
330	1.5621E-09
340	1.56137E-09
350	1.56077E-09
360	1.56026E-09
370	1.55977E-09
380	1.55937E-09
390	1.55895E-09
400	1.55862E-09
	
#End of manufacturer data file		
