# Measurement file: 				
 # Project: CMS Tracker Upgrade				
 # Sensor Type: 2S				
 # ID: 41356_016_2-S_MAIN0				
 # Operator: Ashiq				
 # Date: Thu Jun 09 01:20:01 2022				
# Campaign: Hamamatsu 2S				
# reference pad: 1				
# second_side_start: 1017				
# implant_length: 0				
# metal_width: 32				
# implant_width: 22				
# metal_length: 49504				
# pitch: 90				
# thickness: 240				
# type: p-type				
				
				
				
				
				
				
Pad no.	Rint res[Ohm]	Cint Cp[F]	Temperature degree [C]	Humidity rel. percent[rel %]
1	5.4805E+11	1.58553E-12	20	10.39
16	4.44312E+11	1.58854E-12	20	10.39
31	7.86868E+11	1.58893E-12	20	10.39
46	8.28822E+11	1.59259E-12	20	10.39
61	3.58388E+11	1.59055E-12	20	10.39
76	3.56349E+11	1.59309E-12	20	10.38
91	3.88066E+11	1.59215E-12	20	10.39
106	9.59868E+11	1.58975E-12	20	10.38
121	4.39616E+11	1.5877E-12	20	10.37
136	1.15257E+12	1.58639E-12	20	10.38
151	6.44079E+11	1.58796E-12	20	10.38
166	2.50325E+11	1.58926E-12	20	10.38
181	7.38965E+11	1.58899E-12	20	10.39
196	4.28822E+11	1.58839E-12	20	10.38
211	2.1662E+11	1.59079E-12	20	10.39
226	4.35429E+11	1.58641E-12	20	10.39
241	4.58227E+11	1.59053E-12	20	10.4
256	5.87557E+11	1.58822E-12	20	10.38
271	2.01546E+11	1.58682E-12	20	10.39
286	3.12815E+11	1.58738E-12	20	10.4
301	2.64539E+11	1.58458E-12	20	10.39
316	3.28793E+11	1.5882E-12	20	10.4
331	3.30605E+11	1.58566E-12	20	10.4
346	1.87664E+11	1.58738E-12	20	10.38
361	3.00819E+11	1.58743E-12	20	10.4
376	2.51535E+11	1.588E-12	20	10.4
391	3.56296E+11	1.58663E-12	20	10.4
406	1.99802E+11	1.58458E-12	20	10.41
421	2.08094E+11	1.58633E-12	20	10.41
436	2.24555E+11	1.58887E-12	20	10.43
451	2.28739E+11	1.58366E-12	20	10.4
466	2.55898E+11	1.58436E-12	20	10.42
481	2.83228E+11	1.58876E-12	20	10.42
496	3.42694E+11	1.58806E-12	20	10.43
511	1.98669E+11	1.58547E-12	20	10.43
526	2.37594E+11	1.5894E-12	20	10.42
541	3.73635E+11	1.58996E-12	20	10.42
556	1.98078E+11	1.58692E-12	20	10.43
571	2.0275E+11	1.5868E-12	20	10.44
586	2.29549E+11	1.58596E-12	20	10.44
601	2.21652E+11	1.58741E-12	20	10.45
616	2.5712E+11	1.58576E-12	20	10.45
631	2.05951E+11	1.58776E-12	20	10.44
646	1.23898E+11	1.58468E-12	20	10.44
661	2.0332E+11	1.5855E-12	20	10.44
676	1.43274E+11	1.58884E-12	20	10.45
691	1.68406E+11	1.58423E-12	20	10.45
706	1.8739E+11	1.58256E-12	20	10.46
721	1.75449E+11	1.58254E-12	20	10.44
736	1.92264E+11	1.58257E-12	20	10.45
751	1.22814E+11	1.58605E-12	20	10.45
766	1.61276E+11	1.5858E-12	20	10.48
781	1.92978E+11	1.58705E-12	20	10.48
796	1.27777E+11	1.58938E-12	20	10.48
811	1.96121E+11	1.5853E-12	20	10.47
826	1.69833E+11	1.58518E-12	20	10.46
841	1.73302E+11	1.58734E-12	20	10.48
856	1.88367E+11	1.58304E-12	20	10.49
871	1.15369E+11	1.58907E-12	20	10.49
886	1.65164E+11	1.58858E-12	20	10.48
901	1.68135E+11	1.58807E-12	20	10.49
916	1.66568E+11	1.5861E-12	20	10.49
931	1.44682E+11	1.58801E-12	20	10.51
946	1.2253E+11	1.58662E-12	20	10.49
961	1.45922E+11	1.58686E-12	20	10.51
976	1.60507E+11	1.58744E-12	20	10.5
991	1.76605E+11	1.57988E-12	20	10.5
1006	1.30577E+11	1.6132E-12	20	10.52
1021	90200371211	1.61259E-12	20	10.52
1036	1.00621E+11	1.61347E-12	20	10.52
1051	1.03334E+11	1.61711E-12	20	10.51
1066	1.02562E+11	1.6144E-12	20	10.52
1081	1.03065E+11	1.61412E-12	20	10.54
1096	1.12906E+11	1.61292E-12	20	10.52
1111	92529524920	1.61211E-12	20	10.54
1126	1.52201E+11	1.6114E-12	20	10.55
1141	83053692094	1.61304E-12	20	10.53
1156	1.04829E+11	1.61078E-12	20	10.56
1171	93169373721	1.6116E-12	20	10.53
1186	1.05708E+11	1.61363E-12	20	10.55
1201	97889996010	1.61562E-12	20	10.56
1216	1.18874E+11	1.61537E-12	20	10.56
1231	97099752786	1.60749E-12	20	10.56
1246	86939193610	1.61076E-12	20	10.57
1261	83455689524	1.61454E-12	20	10.57
1276	99017736333	1.61071E-12	20	10.56
1291	1.00916E+11	1.61194E-12	20	10.56
1306	1.00679E+11	1.61226E-12	20	10.57
1321	1.13836E+11	1.61427E-12	20	10.58
1336	1.18819E+11	1.60689E-12	20	10.56
1351	1.18994E+11	1.61353E-12	20	10.58
1366	96694174277	1.61507E-12	20	10.58
1381	1.08173E+11	1.61247E-12	20	10.59
1396	1.04731E+11	1.61267E-12	20	10.6
1411	95884242033	1.61409E-12	20	10.59
1426	96625939387	1.61217E-12	20	10.6
1441	1.00664E+11	1.61276E-12	20	10.58
1456	84992344182	1.6141E-12	20	10.59
1471	1.08084E+11	1.61203E-12	20	10.61
1486	1.00743E+11	1.61339E-12	20	10.59
1501	92777255290	1.61285E-12	20	10.6
1516	1.06637E+11	1.61001E-12	20	10.61
1531	95771407308	1.61359E-12	20	10.61
1546	96604825518	1.61391E-12	20	10.61
1561	1.42748E+11	1.61007E-12	20	10.61
1576	1.02894E+11	1.61271E-12	20	10.61
1591	1.30264E+11	1.61527E-12	20	10.62
1606	1.01314E+11	1.6097E-12	20	10.61
1621	1.08474E+11	1.61059E-12	20	10.63
1636	1.16823E+11	1.61051E-12	20	10.62
1651	1.10275E+11	1.61168E-12	20	10.63
1666	1.1423E+11	1.6145E-12	20	10.63
1681	1.01562E+11	1.61502E-12	20	10.64
1696	1.00281E+11	1.61414E-12	20	10.64
1711	1.08211E+11	1.61405E-12	20	10.65
1726	1.18353E+11	1.61288E-12	20	10.65
1741	1.15651E+11	1.61235E-12	20	10.66
1756	1.17146E+11	1.61111E-12	20	10.66
1771	1.20143E+11	1.61333E-12	20	10.65
1786	1.07095E+11	1.61584E-12	20	10.64
1801	1.31037E+11	1.61349E-12	20	10.66
1816	1.12646E+11	1.61495E-12	20	10.67
1831	1.13943E+11	1.61353E-12	20	10.68
1846	1.06666E+11	1.61631E-12	20	10.67
1861	1.14988E+11	1.61537E-12	20	10.68
1876	1.57478E+11	1.61552E-12	20	10.67
1891	1.14053E+11	1.61572E-12	20	10.66
1906	1.24517E+11	1.61626E-12	20	10.69
1921	1.08577E+11	1.61876E-12	20	10.69
1936	1.30311E+11	1.61297E-12	20	10.71
1951	1.04761E+11	1.61435E-12	20	10.7
1966	1.22457E+11	1.61584E-12	20	10.68
1981	1.55164E+11	1.61552E-12	20	10.7
1996	1.39187E+11	1.61811E-12	20	10.7
				
