#Measurement file	
#project	CMS tracker
#Sensor Type	PSS
#ID	34342_019_PSS_MAINR
#Scratch PAD	|0000|0000|0000|0000|0001|1001|
#Operator	HPK
#Date	28-Sep-20
#Ingot No.	2984038-504
#Bad strips	0
#AC NG	none
#AC open	none
#AC short	none
#DC high	none
#DC low	none
#DC leaky	none
#Polysilicon Bias Resistance Upper [Mohm]	1.81 
#Polysilicon Bias Resistance Lower [Mohm]	1.60 
#Polysilicon Bias Resistance Average [Mohm]	1.70 
#Depletion voltage [V]	280
#temperature [deg]	25
#humidity [%]	50
	
voltage [V]	current [A]
0	4.547E-09
20	6.791E-08
40	7.304E-08
60	7.767E-08
80	7.928E-08
100	8.049E-08
120	8.176E-08
140	8.26E-08
160	8.351E-08
180	8.388E-08
200	8.431E-08
220	8.508E-08
240	8.17E-08
260	8.406E-08
280	8.588E-08
300	0.000000087
320	8.784E-08
340	8.856E-08
360	8.922E-08
380	8.982E-08
400	9.04E-08
420	9.094E-08
440	9.148E-08
460	9.199E-08
480	9.249E-08
500	9.299E-08
520	9.348E-08
540	9.397E-08
560	9.443E-08
580	9.49E-08
600	9.537E-08
620	9.583E-08
640	9.63E-08
660	9.676E-08
680	9.723E-08
700	9.769E-08
720	9.817E-08
740	9.865E-08
760	9.913E-08
780	9.962E-08
800	1.0012E-07
820	1.0062E-07
840	1.0114E-07
860	1.0166E-07
880	1.022E-07
900	1.0275E-07
920	1.0333E-07
940	1.0392E-07
960	1.0455E-07
980	1.0519E-07
1000	1.0586E-07
	
voltage [V]	capacitance [F]
0	6.19652E-08
10	8.18481E-09
20	5.61075E-09
30	4.70307E-09
40	4.11601E-09
50	3.69603E-09
60	3.38639E-09
70	3.14536E-09
80	2.92606E-09
90	2.76274E-09
100	2.62488E-09
110	2.50557E-09
120	2.40134E-09
130	2.3091E-09
140	2.22641E-09
150	2.15222E-09
160	2.08467E-09
170	2.02539E-09
180	1.96743E-09
190	1.91299E-09
200	1.8626E-09
210	1.81506E-09
220	1.76967E-09
230	1.72325E-09
240	1.68101E-09
250	1.64192E-09
260	1.60878E-09
270	1.5854E-09
280	1.57433E-09
290	1.56997E-09
300	1.56771E-09
310	1.56631E-09
320	1.56527E-09
330	1.56445E-09
340	1.56373E-09
350	1.56317E-09
360	1.56265E-09
370	1.56221E-09
380	1.56183E-09
390	1.56144E-09
400	1.56112E-09
	
#End of manufacturer data file		
