Wafer Name:,VTCUPPH

position,ID,result
1,8001, FAIL
2,8002,pass
3,8003,pass
4,8004,pass
5,8005,pass
6,8006,pass
7,8007,pass
8,8008,pass
9,8009,pass
10,8010,pass
11,8011,pass
12,8012, FAIL
13,8013,pass
14,8014, FAIL
15,8015,pass
16,8016,pass
17,8017,pass
18,8018,pass
19,8019,pass
20,8020,pass
21,8021,pass
22,8022,pass
23,8023, FAIL
24,8024,pass
25,8025,pass
26,8026,pass
27,8027,pass
28,8028,pass
29,8029,pass
30,8030,pass
31,8031,pass
32,8032,pass
33,8033,pass
34,8034, FAIL
35,8035,pass
36,8036,pass
37,8037,pass
38,8038,pass
39,8039,pass
40,8040,pass
41,8041, FAIL
42,8042,pass
43,8043,pass
44,8044,pass
45,8045,pass
46,8046,pass
47,8047,pass
48,8048, FAIL
49,8049, FAIL
50,8050, FAIL
51,8051,pass
52,8052,pass
53,8053,pass
54,8054,pass
55,8055,pass
56,8056, FAIL
57,8057,pass
58,8058,pass
59,8059,pass
60,8060,pass
61,8061,pass
62,8062,pass
63,8063, FAIL
64,8064,pass
65,8065,pass
66,8066,pass
67,8067,pass
68,8068,pass
69,8069,pass
70,8070, FAIL
71,8071, FAIL
72,8072,pass
73,8073,pass
74,8074,pass
75,8075,pass
76,8076,pass
77,8077,pass
78,8078, FAIL
79,8079, FAIL
80,8080,pass
81,8081, FAIL
82,8082,pass
83,8083,pass
84,8084,pass
85,8085,pass
86,8086,pass
87,8087,pass
88,8088,pass
89,8089,pass
90,8090, FAIL
91,8091,pass
92,8092,pass
93,8093, FAIL
94,8094,pass
95,8095,pass
96,8096,pass
97,8097,pass
98,8098,pass
99,8099, FAIL
100,8100, FAIL
101,8101, FAIL
102,8102,pass
103,8103,pass
104,8104,pass
105,8105, FAIL
106,8106,pass
107,8107,pass
108,8108, FAIL
109,8109,pass
110,8110,pass
111,8111,pass
112,8112,pass
113,8113,pass
114,8114,pass
115,8115, FAIL
116,8116,pass
117,8117,pass
118,8118,pass
119,8119,pass
120,8120,pass
121,8121,pass
122,8122,pass
123,8123, FAIL
124,8124,pass
125,8125,pass
126,8126,pass
127,8127,pass
128,8128,pass
129,8129,pass
130,8130,pass
131,8131,pass
132,8132,pass
133,8133,pass
134,8134,pass
135,8135,pass
136,8136,pass
137,8137,pass
138,8138,pass
139,8139,pass
140,8140, FAIL
141,8141, FAIL
142,8142,pass
143,8143,pass
144,8144,pass
145,8145,pass
146,8146,pass
147,8147,pass
148,8148,pass
149,8149,pass
150,8150,pass
151,8151,pass
152,8152,pass
153,8153,pass
154,8154,pass
155,8155,pass
156,8156, FAIL
157,8157,pass
158,8158,pass
159,8159,pass
160,8160,pass
161,8161,pass
162,8162,pass
163,8163, FAIL
164,8164,pass
165,8165,pass
166,8166,pass
167,8167, FAIL
168,8168,pass
169,8169,pass
170,8170, FAIL
171,8171,pass
172,8172,pass
173,8173,pass
174,8174,pass
175,8175,pass
176,8176,pass
177,8177, FAIL
178,8178, FAIL
179,8179,pass
180,8180,pass
181,8181,pass
182,8182,pass
183,8183,pass
184,8184, FAIL
185,8185,pass
186,8186,pass
