#NameLabel,2S_18_5_KIT-00001
#Date,2024-03-18 10:00:00
#Comment,
#Location,KIT
#Inserter,Stefan Maier
#KindOfPart,2S Module
#RunType,mod_bonded

POSITION;TYPE_OF_FAILURE;COMMENT_DESCRIPTION
Antenna Pad; Missing; abc
0; Lift-off on sensor; abc
1234; Lift-off on hybrid; abc